﻿Datum,COVID-19 Patienten,Ziekenhuisopnames,Overleden COVID-19 Patienten,Datum Publicatie,Bron
2020-02-27,3,1,0,2020-03-30,https://www.rivm.nl/documenten/epidemiologische-situatie-covid-19-in-nederland-30-maart-2020
2020-02-28,5,0,0,2020-03-30,https://www.rivm.nl/documenten/epidemiologische-situatie-covid-19-in-nederland-30-maart-2020
2020-02-29,13,2,0,2020-03-30,https://www.rivm.nl/documenten/epidemiologische-situatie-covid-19-in-nederland-30-maart-2020
2020-03-01,13,1,0,2020-03-30,https://www.rivm.nl/documenten/epidemiologische-situatie-covid-19-in-nederland-30-maart-2020
2020-03-02,47,3,0,2020-03-30,https://www.rivm.nl/documenten/epidemiologische-situatie-covid-19-in-nederland-30-maart-2020
2020-03-03,40,6,0,2020-03-30,https://www.rivm.nl/documenten/epidemiologische-situatie-covid-19-in-nederland-30-maart-2020
2020-03-04,41,4,0,2020-03-30,https://www.rivm.nl/documenten/epidemiologische-situatie-covid-19-in-nederland-30-maart-2020
2020-03-05,41,5,0,2020-03-30,https://www.rivm.nl/documenten/epidemiologische-situatie-covid-19-in-nederland-30-maart-2020
2020-03-06,33,6,1,2020-03-30,https://www.rivm.nl/documenten/epidemiologische-situatie-covid-19-in-nederland-30-maart-2020
2020-03-07,45,13,1,2020-03-30,https://www.rivm.nl/documenten/epidemiologische-situatie-covid-19-in-nederland-30-maart-2020
2020-03-08,71,12,2,2020-03-30,https://www.rivm.nl/documenten/epidemiologische-situatie-covid-19-in-nederland-30-maart-2020
2020-03-09,77,17,0,2020-03-30,https://www.rivm.nl/documenten/epidemiologische-situatie-covid-19-in-nederland-30-maart-2020
2020-03-10,135,18,1,2020-03-30,https://www.rivm.nl/documenten/epidemiologische-situatie-covid-19-in-nederland-30-maart-2020
2020-03-11,172,36,2,2020-03-30,https://www.rivm.nl/documenten/epidemiologische-situatie-covid-19-in-nederland-30-maart-2020
2020-03-12,184,38,3,2020-03-30,https://www.rivm.nl/documenten/epidemiologische-situatie-covid-19-in-nederland-30-maart-2020
2020-03-13,216,61,6,2020-03-30,https://www.rivm.nl/documenten/epidemiologische-situatie-covid-19-in-nederland-30-maart-2020
2020-03-14,221,57,9,2020-03-30,https://www.rivm.nl/documenten/epidemiologische-situatie-covid-19-in-nederland-30-maart-2020
2020-03-15,234,71,12,2020-03-30,https://www.rivm.nl/documenten/epidemiologische-situatie-covid-19-in-nederland-30-maart-2020
2020-03-16,272,113,23,2020-03-30,https://www.rivm.nl/documenten/epidemiologische-situatie-covid-19-in-nederland-30-maart-2020
2020-03-17,372,127,22,2020-03-30,https://www.rivm.nl/documenten/epidemiologische-situatie-covid-19-in-nederland-30-maart-2020
2020-03-18,459,136,20,2020-03-30,https://www.rivm.nl/documenten/epidemiologische-situatie-covid-19-in-nederland-30-maart-2020
2020-03-19,514,210,44,2020-03-30,https://www.rivm.nl/documenten/epidemiologische-situatie-covid-19-in-nederland-30-maart-2020
2020-03-20,703,297,49,2020-03-30,https://www.rivm.nl/documenten/epidemiologische-situatie-covid-19-in-nederland-30-maart-2020
2020-03-21,667,301,60,2020-03-30,https://www.rivm.nl/documenten/epidemiologische-situatie-covid-19-in-nederland-30-maart-2020
2020-03-22,541,266,57,2020-03-30,https://www.rivm.nl/documenten/epidemiologische-situatie-covid-19-in-nederland-30-maart-2020
2020-03-23,618,288,79,2020-03-30,https://www.rivm.nl/documenten/epidemiologische-situatie-covid-19-in-nederland-30-maart-2020
2020-03-24,1127,434,67,2020-03-30,https://www.rivm.nl/documenten/epidemiologische-situatie-covid-19-in-nederland-30-maart-2020
2020-03-25,1043,359,97,2020-03-30,https://www.rivm.nl/documenten/epidemiologische-situatie-covid-19-in-nederland-30-maart-2020
2020-03-26,1045,329,104,2020-03-30,https://www.rivm.nl/documenten/epidemiologische-situatie-covid-19-in-nederland-30-maart-2020
2020-03-27,1171,342,81,2020-03-30,https://www.rivm.nl/documenten/epidemiologische-situatie-covid-19-in-nederland-30-maart-2020
2020-03-28,970,276,101,2020-03-30,https://www.rivm.nl/documenten/epidemiologische-situatie-covid-19-in-nederland-30-maart-2020
2020-03-29,622,160,20,2020-03-30,https://www.rivm.nl/documenten/epidemiologische-situatie-covid-19-in-nederland-30-maart-2020
2020-03-30,35,1,3,2020-03-30,https://www.rivm.nl/documenten/epidemiologische-situatie-covid-19-in-nederland-30-maart-2020
