﻿Datum,COVID-19 Patienten,Ziekenhuisopnames,Overleden COVID-19 Patienten,Datum Publicatie,Bron
2020-02-27,3,1,0,2020-04-04,https://www.rivm.nl/sites/default/files/2020-04/COVID-19_WebSite_rapport_20200404_1004.pdf
2020-02-28,4,0,0,2020-04-04,https://www.rivm.nl/sites/default/files/2020-04/COVID-19_WebSite_rapport_20200404_1004.pdf
2020-02-29,12,2,0,2020-04-04,https://www.rivm.nl/sites/default/files/2020-04/COVID-19_WebSite_rapport_20200404_1004.pdf
2020-03-01,13,1,0,2020-04-04,https://www.rivm.nl/sites/default/files/2020-04/COVID-19_WebSite_rapport_20200404_1004.pdf
2020-03-02,48,3,0,2020-04-04,https://www.rivm.nl/sites/default/files/2020-04/COVID-19_WebSite_rapport_20200404_1004.pdf
2020-03-03,40,6,0,2020-04-04,https://www.rivm.nl/sites/default/files/2020-04/COVID-19_WebSite_rapport_20200404_1004.pdf
2020-03-04,41,4,0,2020-04-04,https://www.rivm.nl/sites/default/files/2020-04/COVID-19_WebSite_rapport_20200404_1004.pdf
2020-03-05,41,6,0,2020-04-04,https://www.rivm.nl/sites/default/files/2020-04/COVID-19_WebSite_rapport_20200404_1004.pdf
2020-03-06,33,6,1,2020-04-04,https://www.rivm.nl/sites/default/files/2020-04/COVID-19_WebSite_rapport_20200404_1004.pdf
2020-03-07,45,13,1,2020-04-04,https://www.rivm.nl/sites/default/files/2020-04/COVID-19_WebSite_rapport_20200404_1004.pdf
2020-03-08,71,14,2,2020-04-04,https://www.rivm.nl/sites/default/files/2020-04/COVID-19_WebSite_rapport_20200404_1004.pdf
2020-03-09,77,17,0,2020-04-04,https://www.rivm.nl/sites/default/files/2020-04/COVID-19_WebSite_rapport_20200404_1004.pdf
2020-03-10,136,18,1,2020-04-04,https://www.rivm.nl/sites/default/files/2020-04/COVID-19_WebSite_rapport_20200404_1004.pdf
2020-03-11,172,42,2,2020-04-04,https://www.rivm.nl/sites/default/files/2020-04/COVID-19_WebSite_rapport_20200404_1004.pdf
2020-03-12,183,41,3,2020-04-04,https://www.rivm.nl/sites/default/files/2020-04/COVID-19_WebSite_rapport_20200404_1004.pdf
2020-03-13,217,63,6,2020-04-04,https://www.rivm.nl/sites/default/files/2020-04/COVID-19_WebSite_rapport_20200404_1004.pdf
2020-03-14,221,64,10,2020-04-04,https://www.rivm.nl/sites/default/files/2020-04/COVID-19_WebSite_rapport_20200404_1004.pdf
2020-03-15,233,79,12,2020-04-04,https://www.rivm.nl/sites/default/files/2020-04/COVID-19_WebSite_rapport_20200404_1004.pdf
2020-03-16,272,120,23,2020-04-04,https://www.rivm.nl/sites/default/files/2020-04/COVID-19_WebSite_rapport_20200404_1004.pdf
2020-03-17,374,144,23,2020-04-04,https://www.rivm.nl/sites/default/files/2020-04/COVID-19_WebSite_rapport_20200404_1004.pdf
2020-03-18,461,172,20,2020-04-04,https://www.rivm.nl/sites/default/files/2020-04/COVID-19_WebSite_rapport_20200404_1004.pdf
2020-03-19,515,238,43,2020-04-04,https://www.rivm.nl/sites/default/files/2020-04/COVID-19_WebSite_rapport_20200404_1004.pdf
2020-03-20,704,307,54,2020-04-04,https://www.rivm.nl/sites/default/files/2020-04/COVID-19_WebSite_rapport_20200404_1004.pdf
2020-03-21,669,322,59,2020-04-04,https://www.rivm.nl/sites/default/files/2020-04/COVID-19_WebSite_rapport_20200404_1004.pdf
2020-03-22,545,286,59,2020-04-04,https://www.rivm.nl/sites/default/files/2020-04/COVID-19_WebSite_rapport_20200404_1004.pdf
2020-03-23,621,314,82,2020-04-04,https://www.rivm.nl/sites/default/files/2020-04/COVID-19_WebSite_rapport_20200404_1004.pdf
2020-03-24,1131,556,73,2020-04-04,https://www.rivm.nl/sites/default/files/2020-04/COVID-19_WebSite_rapport_20200404_1004.pdf
2020-03-25,1053,481,105,2020-04-04,https://www.rivm.nl/sites/default/files/2020-04/COVID-19_WebSite_rapport_20200404_1004.pdf
2020-03-26,1050,483,119,2020-04-04,https://www.rivm.nl/sites/default/files/2020-04/COVID-19_WebSite_rapport_20200404_1004.pdf
2020-03-27,1193,528,102,2020-04-04,https://www.rivm.nl/sites/default/files/2020-04/COVID-19_WebSite_rapport_20200404_1004.pdf
2020-03-28,994,477,146,2020-04-04,https://www.rivm.nl/sites/default/files/2020-04/COVID-19_WebSite_rapport_20200404_1004.pdf
2020-03-29,744,386,112,2020-04-04,https://www.rivm.nl/sites/default/files/2020-04/COVID-19_WebSite_rapport_20200404_1004.pdf
2020-03-30,802,329,141,2020-04-04,https://www.rivm.nl/sites/default/files/2020-04/COVID-19_WebSite_rapport_20200404_1004.pdf
2020-03-31,1127,451,141,2020-04-04,https://www.rivm.nl/sites/default/files/2020-04/COVID-19_WebSite_rapport_20200404_1004.pdf
2020-04-01,1026,288,136,2020-04-04,https://www.rivm.nl/sites/default/files/2020-04/COVID-19_WebSite_rapport_20200404_1004.pdf
2020-04-02,924,241,124,2020-04-04,https://www.rivm.nl/sites/default/files/2020-04/COVID-19_WebSite_rapport_20200404_1004.pdf
2020-04-03,832,119,49,2020-04-04,https://www.rivm.nl/sites/default/files/2020-04/COVID-19_WebSite_rapport_20200404_1004.pdf
2020-04-04,0,0,0,2020-04-04,https://www.rivm.nl/sites/default/files/2020-04/COVID-19_WebSite_rapport_20200404_1004.pdf
